{
    "name": "Thinkpad Battery Threshold",
    "description": "Enable/Disable battery threshold on Lenovo Thinkpad laptops (If available)\n\nTo check if the function is available, see if the files 'charge_control_start_threshold' and 'charge_control_end_threshold' (valid alternatives: 'charge_start_threshold' and 'charge_stop_threshold') exist in the /sys/class/power_supply/BAT0 directory, also you must have permissions to read and write (in case you do not have write permissions, the root password will be requested to modify the values).",
    "uuid": "thinkpad-battery-threshold@marcosdalvarez.org",
    "settings-schema": "org.gnome.shell.extensions.thinkpad-battery-threshold",
    "gettext-domain": "thinkpad-battery-threshold@marcosdalvarez.org",
    "url": "https://gitlab.com/marcosdalvarez/thinkpad-battery-threshold-extension",
    "version": 5,
    "shell-version": [
        "41"
    ]
}
