<?xml version="1.0" encoding="UTF-8" standalone="no"?>
<svg
   width="16"
   height="16.001"
   version="1.1"
   id="svg8"
   sodipodi:docname="threshold-unknown.svg"
   inkscape:version="1.1.1 (3bf5ae0d25, 2021-09-20)"
   xmlns:inkscape="http://www.inkscape.org/namespaces/inkscape"
   xmlns:sodipodi="http://sodipodi.sourceforge.net/DTD/sodipodi-0.dtd"
   xmlns="http://www.w3.org/2000/svg"
   xmlns:svg="http://www.w3.org/2000/svg">
  <defs
     id="defs12">
    <clipPath
       clipPathUnits="userSpaceOnUse"
       id="clipPath1099">
      <path
         id="path1101"
         style="fill:#ff0000"
         d="m 3.437702,-0.09907055 c -0.4,0 -0.815,0.15975 -1.125,0.46874999 L 1.1759833,1.5063981 H 5.6994208 L 4.562702,0.36967944 C 4.2639805,0.07150025 3.8597693,-0.09692115 3.437702,-0.09907055 Z M 5.6994208,1.5063981 10.937701,6.7446794 c 0.62,0.62 0.62,1.63 0,2.25 L 4.562702,15.369679 c -0.62,0.62 -1.63,0.62 -2.25,0 l -6.375,-6.3749996 c -0.62,-0.62 -0.6056349,-1.6159603 0,-2.25 C -2.390839,4.9948276 -8.4523746,2.8555981 1.1759833,1.5063981 H -4.6736261 V 17.047414 H 12.027545 V 2.7485856 H 11.69942 V 2.3931169 h 0.328125 V 1.5063981 Z m 6.3281242,0.8867188 v 0.3554687 h 0.230469 V 2.3931169 Z M 3.5900458,2.8755387 C 3.1459122,2.8519027 2.7021201,2.9279817 2.2912177,3.098195 c -1.119,0.463 -1.85351567,1.5614844 -1.85351567,2.7714844 H 2.437702 C 2.4360661,5.4647731 2.6802006,5.0993439 3.0548895,4.9458512 3.4284143,4.7893518 3.8595379,4.8751129 4.1447333,5.1626481 c 0.2875352,0.2851954 0.3732963,0.716319 0.2167968,1.0898438 -0.1559999,0.377 -0.5168281,0.6171875 -0.9238281,0.6171875 -0.5522847,0 -1,0.4477153 -1,1 v 2 h 2 V 8.6899919 C 5.2389256,8.4089754 5.8834144,7.8013958 6.2111395,7.0181169 6.6738543,5.8968696 6.4173453,4.6073893 5.5607489,3.7485856 5.0346295,3.2235661 4.3323958,2.9124675 3.5900458,2.8755387 Z M 3.437702,10.86968 c -0.5522846,0 -0.9999997,0.447714 -1,0.999999 0,0.552285 0.4477153,1 1,1 0.5522847,0 1,-0.447715 1,-1 -3e-7,-0.552285 -0.4477154,-0.999999 -1,-0.999999 z"
         sodipodi:nodetypes="cccccccssssssccccccccccccccccccccccssccccccsssss" />
    </clipPath>
  </defs>
  <sodipodi:namedview
     id="namedview10"
     pagecolor="#505050"
     bordercolor="#eeeeee"
     borderopacity="1"
     inkscape:pageshadow="0"
     inkscape:pageopacity="0"
     inkscape:pagecheckerboard="0"
     showgrid="false"
     inkscape:zoom="28.998189"
     inkscape:cx="7.8280751"
     inkscape:cy="8.0004996"
     inkscape:window-width="1366"
     inkscape:window-height="699"
     inkscape:window-x="0"
     inkscape:window-y="0"
     inkscape:window-maximized="1"
     inkscape:current-layer="g6" />
  <g
     fill="#2e3436"
     id="g6"
     style="fill:#474747">
    <path
       d="M5.469 0c-.49 0-.796.216-1.032.456C4.202.696 4 1.012 4 1.486V2H2v14h12V2h-2v-.406l-.002-.028a1.616 1.616 0 00-.416-1.012c-.236-.278-.62-.584-1.2-.552L10.438 0zM6 2h4v2h2v10H4V4h2z"
       style="line-height:normal;font-variant-ligatures:normal;font-variant-position:normal;font-variant-caps:normal;font-variant-numeric:normal;font-variant-alternates:normal;font-feature-settings:normal;text-indent:0;text-align:start;text-decoration-line:none;text-decoration-style:solid;text-decoration-color:#000;text-transform:none;text-orientation:mixed;white-space:normal;shape-padding:0;isolation:auto;mix-blend-mode:normal;solid-color:#000;solid-opacity:1;marker:none;fill:#ffff00"
       color="#bebebe"
       font-weight="400"
       font-family="sans-serif"
       overflow="visible"
       id="path2" />
    <rect
       style="fill:#ffff00;stroke-width:0.702505"
       id="rect995"
       width="6.6294727"
       height="10.308758"
       x="0.10005311"
       y="2.7876868"
       clip-path="url(#clipPath1099)"
       transform="matrix(0.85,0,0,0.85,5.0974289,2.2980476)" />
  </g>
</svg>
