<?xml version="1.0" encoding="UTF-8" standalone="no"?>
<svg
   width="16"
   height="16.001"
   version="1.1"
   id="svg8"
   sodipodi:docname="threshold-app-symbolic.svg"
   inkscape:version="1.1.1 (3bf5ae0d25, 2021-09-20)"
   xmlns:inkscape="http://www.inkscape.org/namespaces/inkscape"
   xmlns:sodipodi="http://sodipodi.sourceforge.net/DTD/sodipodi-0.dtd"
   xmlns="http://www.w3.org/2000/svg"
   xmlns:svg="http://www.w3.org/2000/svg">
  <defs
     id="defs12" />
  <sodipodi:namedview
     id="namedview10"
     pagecolor="#505050"
     bordercolor="#eeeeee"
     borderopacity="1"
     inkscape:pageshadow="0"
     inkscape:pageopacity="0"
     inkscape:pagecheckerboard="0"
     showgrid="false"
     inkscape:zoom="28.998189"
     inkscape:cx="7.6556505"
     inkscape:cy="8.0004996"
     inkscape:window-width="1366"
     inkscape:window-height="699"
     inkscape:window-x="0"
     inkscape:window-y="0"
     inkscape:window-maximized="1"
     inkscape:current-layer="g6" />
  <g
     fill="#2e3436"
     id="g6"
     style="fill:#474747">
    <path
       d="M5.469 0c-.49 0-.796.216-1.032.456C4.202.696 4 1.012 4 1.486V2H2v14h12V2h-2v-.406l-.002-.028a1.616 1.616 0 00-.416-1.012c-.236-.278-.62-.584-1.2-.552L10.438 0zM6 2h4v2h2v10H4V4h2z"
       style="line-height:normal;font-variant-ligatures:normal;font-variant-position:normal;font-variant-caps:normal;font-variant-numeric:normal;font-variant-alternates:normal;font-feature-settings:normal;text-indent:0;text-align:start;text-decoration-line:none;text-decoration-style:solid;text-decoration-color:#000;text-transform:none;text-orientation:mixed;white-space:normal;shape-padding:0;isolation:auto;mix-blend-mode:normal;solid-color:#000;solid-opacity:1;marker:none;fill:#2e3436"
       color="#bebebe"
       font-weight="400"
       font-family="sans-serif"
       overflow="visible"
       id="path2" />
    <g
       color="#bebebe"
       fill="#474747"
       id="g6-3"
       transform="matrix(0.5,0,0,0.5,4,5.2589997)"
       style="fill:#2e3436">
      <path
         d="m 2,1 v 7 c 0,2.072 1.498,3.695 2.832,4.889 a 18.66,18.66 0 0 0 2.66,1.972 l 0.516,0.305 0.512,-0.31 c 0,0 1.32,-0.8 2.65,-2.002 C 12.5,11.65 14,10.044 14,8 V 1 Z m 2,2 h 8 V 8 C 12,8.92 11,10.313 9.83,11.37 8.917,12.195 8.353,12.524 7.994,12.756 7.636,12.53 7.076,12.213 6.166,11.398 5,10.355 4,8.98 4,8 Z"
         style="line-height:normal;font-variant-ligatures:normal;font-variant-position:normal;font-variant-caps:normal;font-variant-numeric:normal;font-variant-alternates:normal;font-feature-settings:normal;text-indent:0;text-align:start;text-decoration-line:none;text-decoration-style:solid;text-decoration-color:#000000;text-transform:none;text-orientation:mixed;shape-padding:0;isolation:auto;mix-blend-mode:normal;fill:#2e3436;marker:none"
         font-weight="400"
         font-family="sans-serif"
         overflow="visible"
         id="path2-6" />
      <path
         d="M 5,4 V 8 C 5,8.357 5.755,9.641 6.844,10.625 7.419,11.145 7.58,11.205 8,11.5 8.42,11.206 8.581,11.145 9.156,10.625 10.246,9.641 11,8.357 11,8 V 4 Z"
         style="fill:#2e3436;marker:none"
         overflow="visible"
         id="path4" />
    </g>
  </g>
</svg>
